Intro to R
…
Assignment with <-

In R, you’ll frequently see the <- used instead of = to assign variables.

x <- 10

Loading data

You can import data into R using the R-studio GUI, but more often you’ll want to use written commands for data import.

Loading data from a URL

Run each of the commands below to import survey data used for the FiveThirtyEight article Elitist, Superfluous, Or Popular? We Polled Americans on the Oxford Comma

# A tibble: 1,129 × 13
           ID comma_grammar           heardof_OC howmuch_OC comma_but dataplural
        <dbl> <chr>                   <chr>      <chr>      <chr>     <chr>     
 1 3292953864 It's important for a p… Yes        Some       Some exp… No        
 2 3292950324 It's important for a p… No         Not much   Some exp… No        
 3 3292942669 It's important for a p… Yes        Some       Some exp… Yes       
 4 3292932796 It's important for a p… Yes        Some       Some exp… No        
 5 3292932522 It's important for a p… No         Not much   Some exp… No        
 6 3292926586 It's important for a p… No         A lot      Some exp… Yes       
 7 3292908135 It's important for a p… Yes        A lot      Some exp… Yes       
 8 3292869879 It's important for a p… Yes        A lot      Some exp… No        
 9 3292863455 It's important for a p… Yes        A lot      Some exp… No        
10 3292860428 It's important for a p… No         Not at all Some exp… Yes       
# ℹ 1,119 more rows
# ℹ 7 more variables: dataplural_imp <chr>, grammar_importance <chr>,
#   gender <chr>, age <chr>, hhinc <chr>, educ <chr>, census_region <chr>
…
vec<-c("A" = 1, "B" = 2, "C" = 3)

vec["B"]

B 
2 

Data frame indexing

In most cases, we’ll store tabular data in a data frame (or a tibble, which is a close relative)

mpg

# A tibble: 234 × 11
   manufacturer model      displ  year   cyl trans drv     cty   hwy fl    class
   <chr>        <chr>      <dbl> <int> <int> <chr> <chr> <int> <int> <chr> <chr>
 1 audi         a4           1.8  1999     4 auto… f        18    29 p     comp…
 2 audi         a4           1.8  1999     4 manu… f        21    29 p     comp…
 3 audi         a4           2    2008     4 manu… f        20    31 p     comp…
 4 audi         a4           2    2008     4 auto… f        21    30 p     comp…
 5 audi         a4           2.8  1999     6 auto… f        16    26 p     comp…
 6 audi         a4           2.8  1999     6 manu… f        18    26 p     comp…
 7 audi         a4           3.1  2008     6 auto… f        18    27 p     comp…
 8 audi         a4 quattro   1.8  1999     4 manu… 4        18    26 p     comp…
 9 audi         a4 quattro   1.8  1999     4 auto… 4        16    25 p     comp…
10 audi         a4 quattro   2    2008     4 manu… 4        20    28 p     comp…
# ℹ 224 more rows
…
mpg[1,1]

# A tibble: 1 × 1
  manufacturer
  <chr>       
1 audi        

Data frame indexing

Leaving the row index blank will return an entire column:

mpg[,1]

# A tibble: 234 × 1
   manufacturer
   <chr>       
 1 audi        
 2 audi        
 3 audi        
 4 audi        
 5 audi        
 6 audi        
 7 audi        
 8 audi        
 9 audi        
10 audi        
# ℹ 224 more rows
…
Data frame indexing

I could also use the logical statement to get a new data frame with only rows where cty is greater than 20:

mpg[mpg$cty>20,]

# A tibble: 45 × 11
   manufacturer model  displ  year   cyl trans     drv     cty   hwy fl    class
   <chr>        <chr>  <dbl> <int> <int> <chr>     <chr> <int> <int> <chr> <chr>
 1 audi         a4       1.8  1999     4 manual(m… f        21    29 p     comp…
 2 audi         a4       2    2008     4 auto(av)  f        21    30 p     comp…
 3 chevrolet    malibu   2.4  2008     4 auto(l4)  f        22    30 r     mids…
 4 honda        civic    1.6  1999     4 manual(m… f        28    33 r     subc…
 5 honda        civic    1.6  1999     4 auto(l4)  f        24    32 r     subc…
 6 honda        civic    1.6  1999     4 manual(m… f        25    32 r     subc…
 7 honda        civic    1.6  1999     4 manual(m… f        23    29 p     subc…
 8 honda        civic    1.6  1999     4 auto(l4)  f        24    32 r     subc…
 9 honda        civic    1.8  2008     4 manual(m… f        26    34 r     subc…
10 honda        civic    1.8  2008     4 auto(l5)  f        25    36 r     subc…
# ℹ 35 more rows
…
Tidyverse and tidy data

In this class, we’ll often use tidyverse packages for a lot of our data manipulation and code.

Tidyverse and tidy data

The tidyverse is a collection of packages with some shared design features and grammar.

The .data argument

In this class, we’ll often use tidyverse commands for data manipulation. Many of these commands will allow us to use a .data argument and then leave out the $ notation:

select(.data=mpg, model)

# A tibble: 234 × 1
   model     
   <chr>     
 1 a4        
 2 a4        
 3 a4        
 4 a4        
 5 a4        
 6 a4        
 7 a4        
 8 a4 quattro
 9 a4 quattro
10 a4 quattro
# ℹ 224 more rows

The .data argument

This is convenient when we want to work with multiple columns without typing out the data set name over and over:

select(.data = mpg,  cty, hwy, model)

# A tibble: 234 × 3
     cty   hwy model     
   <int> <int> <chr>     
 1    18    29 a4        
 2    21    29 a4        
 3    20    31 a4        
 4    21    30 a4        
 5    16    26 a4        
 6    18    26 a4        
 7    18    27 a4        
 8    18    26 a4 quattro
 9    16    25 a4 quattro
10    20    28 a4 quattro
# ℹ 224 more rows
…
Pipes are just a convenient way to write R code that has lots of steps.

Pipes

Take this command:

select(.data=mpg, cty)

We can re-write it using a pipe:

mpg|>
  select(cty)

# A tibble: 234 × 1
     cty
   <int>
 1    18
 2    21
 3    20
 4    21
 5    16
 6    18
 7    18
 8    18
 9    16
10    20
# ℹ 224 more rows
…
